{
    "name": "nest-seed-project",
    "description": "Nest framework seed project with express-session",
    "author": "Julien Dufresne",
    "license": "MIT",
    "server": {
        "port": 8080
    },
    "database": {
        "path": "./database",
        "type": "SQL"
    }
}