{
    "name": "users",
    "columns": [
        {
            "name": "id",
            "type": "INTEGER",
            "isPrimaryKey": true,
            "autoIncrement": true
        },
        {
            "name": "username",
            "type": "STRING",
            "allowNull": false
        },
        {
            "name": "password",
            "type": "STRING",
            "allowNull": false
        },
        {
            "name": "role_id",
            "type": "INTEGER",
            "isForeignKey": true,
            "foreign_key": {
                "table": "roles",
                "column": "id"
            }
        }
    ],
    "associations": [
        {
            "table": "roles",
            "column": "role_id",
            "type": "BELONGSTO"
        },
        {
            "table": "permissions",
            "column": "user_id",
            "type": "BELONGSTOMANY",
            "through": "permission_users"
        }
    ],
    "indexes": []
}